[Tue Feb 24 2015 15:59:18 GMT+0900 (JST)] INFO Connecting...
Welcome to Slack. You are @avenger2 of Toralab
You are in: #general
As well as: 
You have 3 unread messages
avenger2 is not away
[Tue Feb 24 2015 16:00:33 GMT+0900 (JST)] INFO Connecting...
Welcome to Slack. You are @avenger2 of Toralab
You are in: #general
As well as: 
You have 3 unread messages
avenger2 is not away
katashin is not active
katashin moved to 帰宅
katashin is not away
katashin moved to 院部屋
fujisho is not active
fujisho moved to 帰宅
tatsuom is not away
tatsuom moved to 学部部屋
katashin is not active
katashin moved to 帰宅
katashin is not away
katashin moved to 院部屋
fujisho is not away
fujisho moved to 院部屋
fujisho is not active
fujisho moved to 帰宅
tatsuom is not active
tatsuom moved to 帰宅
katashin is not active
katashin moved to 帰宅
katashin is not away
katashin moved to 院部屋
katashin is not active
katashin moved to 帰宅
katashin is not away
katashin moved to 院部屋
katashin is not active
katashin moved to 帰宅
siramatu is not active
siramatu moved to 帰宅
katashin is not away
katashin moved to 院部屋
kyudai is not active
kyudai moved to 帰宅
ozono is not away
ozn202a moved to 教官室（大囿）
kyudai is not away
kyudai moved to 院部屋
siramatu is not away
siramatu moved to 教官室（白松）
siramatu is not active
siramatu moved to 帰宅
tora is not away
toramatsu3 moved to 教官室（新谷）
fujisho is not away
fujisho moved to 院部屋
fujisho is not active
fujisho moved to 帰宅
siramatu is not away
siramatu moved to 教官室（白松）
fujisho is not away
fujisho moved to 院部屋
fujisho is not active
fujisho moved to 帰宅
katashin is not active
katashin moved to 帰宅
fujisho is not away
fujisho moved to 院部屋
fujisho is not active
fujisho moved to 帰宅
ozono is not active
ozn202a moved to 帰宅
syuya is not away
syuya moved to 院部屋
syuya is not active
syuya moved to 帰宅
tora is not active
toramatsu3 moved to 帰宅
kyudai is not active
kyudai moved to 帰宅
[Tue Feb 24 2015 17:18:08 GMT+0900 (JST)] ERROR Last pong is too old: 14.816
[Tue Feb 24 2015 17:18:08 GMT+0900 (JST)] INFO Reconnecting in 1000ms
[Tue Feb 24 2015 17:18:09 GMT+0900 (JST)] INFO Attempting reconnect
[Tue Feb 24 2015 17:18:09 GMT+0900 (JST)] INFO Connecting...
Error: undefined
[Tue Feb 24 2015 20:17:48 GMT+0900 (JST)] INFO Connecting...
Welcome to Slack. You are @avenger2 of Toralab
You are in: #general
As well as: 
You have 3 unread messages
avenger2 is not away
fujisho is not away
fujisho moved to 院部屋
fujisho is not active
fujisho moved to 帰宅
onoaki is not away
onoaki moved to 院部屋
onoaki is not active
onoaki moved to 帰宅
kyoshida is not away
kyoshida moved to 学部部屋
kyoshida is not active
kyoshida moved to 帰宅
kyoshida is not away
kyoshida moved to 学部部屋
kyoshida is not active
kyoshida moved to 帰宅
nakihiro is not away
nakihiro moved to 学部部屋
onoaki is not away
onoaki moved to 院部屋
onoaki is not active
onoaki moved to 帰宅
nkatsu is not away
nkatsu moved to 院部屋
nkatsu is not active
nkatsu moved to 帰宅
nkatsu is not away
nkatsu moved to 院部屋
nkatsu is not active
nkatsu moved to 帰宅
syuya is not away
syuya moved to 院部屋
syuya is not active
syuya moved to 帰宅
suzutomo is not active
suzutomo moved to 帰宅
suzutomo is not away
suzutomo moved to 学部部屋
kyudai is not active
kyudai moved to 帰宅
tsukasho is not active
takum is not away
takum moved to 学部部屋
takum is not active
takum moved to 帰宅
kyudai is not away
kyudai moved to 院部屋
suzutomo is not active
suzutomo moved to 帰宅
sugikyo is not active
sugikyo moved to 帰宅
ybessho is not active
ybessho moved to 帰宅
ozono is not active
ozn202a moved to 帰宅
tsukasho is not away
tsukasho is not away
tatsuom is not away
tatsuom moved to 学部部屋
sakihiro is not away
sakihiro moved to 院部屋
sakihiro is not active
sakihiro moved to 帰宅
sakihiro is not away
sakihiro moved to 院部屋
sugikyo is not away
sugikyo moved to 学部部屋
tatsuom is not active
tatsuom moved to 帰宅
sakihiro is not active
sakihiro moved to 帰宅
nkatsu is not away
nkatsu is not active
nkatsu moved to 院部屋
nkatsu moved to 帰宅
masatow is not active
masatow moved to 帰宅
nakihiro is not active
nakihiro moved to 帰宅
kyudai is not active
kyudai moved to 帰宅
kyudai is not away
kyudai moved to 院部屋
onoaki is not away
onoaki moved to 院部屋
syuya is not away
syuya moved to 院部屋
syuya is not active
syuya moved to 帰宅
onoaki is not active
onoaki moved to 帰宅
masatow is not away
masatow moved to 院部屋
masatow is not away
masatow moved to 院部屋
fujisho is not away
fujisho moved to 院部屋
fujisho is not active
fujisho moved to 帰宅
tsukasho is not active
kyudai is not active
kyudai moved to 帰宅
tora is not away
toramatsu3 moved to 教官室（新谷）
kyudai is not away
kyudai moved to 院部屋
nkatsu is not away
nkatsu moved to 院部屋
nkatsu is not active
nkatsu moved to 帰宅
sugikyo is not active
sugikyo moved to 帰宅
tora is not active
toramatsu3 moved to 帰宅
yusuken is not away
yusuken moved to 院部屋
katashin is not away
katashin moved to 院部屋
yusuken is not active
yusuken moved to 帰宅
katashin is not active
katashin moved to 帰宅
kyudai is not active
kyudai moved to 帰宅
katashin is not away
katashin moved to 院部屋
katashin is not active
katashin moved to 帰宅
tsukasho is not active
suzutomo is not away
suzutomo moved to 学部部屋
tatsuom is not away
tatsuom moved to 学部部屋
tatsuom is not active
tatsuom moved to 帰宅
tsukasho is not away
tsukasho is not away
tora is not away
toramatsu3 moved to 教官室（新谷）
sakihiro is not away
sakihiro moved to 院部屋
kyudai is not away
kyudai moved to 院部屋
suzutomo is not active
suzutomo is not away
suzutomo moved to 学部部屋
suzutomo is not active
tora is not active
kyudai is not active
sakihiro is not active
kyudai is not away
kyudai moved to 院部屋
sugikyo is not away
sugikyo moved to 学部部屋
yusuken is not away
yusuken moved to 院部屋
yusuken is not active
onoaki is not away
onoaki moved to 院部屋
onoaki is not active
onoaki is not away
onoaki moved to 院部屋
kyudai is not active
sugikyo is not active
kyudai is not away
kyudai moved to 院部屋
onoaki is not active
kyudai is not active
kyudai is not away
kyudai moved to 院部屋
kyudai is not active
tyujiro is not away
tyujiro moved to 学部部屋
tyujiro is not active
kyudai is not away
kyudai moved to 院部屋
kyudai is not active
kyudai is not away
kyudai moved to 院部屋
kyudai is not active
kyudai is not away
kyudai moved to 院部屋
ozono is not away
ozn202a moved to 教官室（大囿）
kyudai is not active
suzutomo is not away
suzutomo moved to 学部部屋
suzutomo is not active
suzutomo is not away
suzutomo moved to 学部部屋
suzutomo is not active
suzutomo is not away
suzutomo moved to 学部部屋
sakihiro is not away
sakihiro moved to 院部屋
sakihiro is not active
suzutomo is not active
sakihiro is not away
sakihiro moved to 院部屋
sakihiro is not active
suzutomo is not away
suzutomo moved to 学部部屋
suzutomo is not active
suzutomo is not away
suzutomo moved to 学部部屋
suzutomo is not active
suzutomo is not away
suzutomo moved to 学部部屋
suzutomo is not active
ozono is not active
katashin is not away
katashin moved to 院部屋
katashin is not active
yusuken is not away
yusuken moved to 院部屋
ozono is not away
ozn202a moved to 教官室（大囿）
kyudai is not away
kyudai moved to 院部屋
kyudai is not active
suzutomo is not away
suzutomo moved to 学部部屋
suzutomo is not active
yusuken is not active
suzutomo is not away
suzutomo moved to 学部部屋
suzutomo is not active
suzutomo is not away
suzutomo moved to 学部部屋
suzutomo is not active
yusuken is not away
yusuken moved to 院部屋
tsukasho is not active
yusuken is not active
suzutomo is not away
suzutomo moved to 学部部屋
suzutomo is not active
onoaki is not away
onoaki moved to 院部屋
suzutomo is not away
suzutomo moved to 学部部屋
suzutomo is not active
suzutomo is not away
suzutomo moved to 学部部屋
suzutomo is not active
suzutomo is not away
suzutomo moved to 学部部屋
suzutomo is not active
suzutomo is not away
suzutomo moved to 学部部屋
suzutomo is not active
yusuken is not away
yusuken moved to 院部屋
yusuken is not active
yusuken is not away
yusuken moved to 院部屋
yusuken is not active
katashin is not away
katashin moved to 院部屋
katashin is not active
suzutomo is not away
suzutomo moved to 学部部屋
suzutomo is not active
suzutomo is not away
suzutomo moved to 学部部屋
kyudai is not away
kyudai moved to 院部屋
suzutomo is not active
suzutomo is not away
suzutomo moved to 学部部屋
suzutomo is not active
suzutomo is not away
suzutomo moved to 学部部屋
suzutomo is not active
yusuken is not away
yusuken moved to 院部屋
katashin is not away
katashin moved to 院部屋
katashin is not active
katashin is not away
katashin moved to 院部屋
katashin is not active
katashin is not away
katashin moved to 院部屋
sugikyo is not away
sugikyo moved to 学部部屋
katashin is not active
katashin is not away
katashin moved to 院部屋
katashin is not active
suzutomo is not away
suzutomo moved to 学部部屋
yusuken is not active
suzutomo is not active
tatsuom is not away
tatsuom moved to 学部部屋
tatsuom is not active
katashin is not away
katashin moved to 院部屋
katashin is not active
katashin is not away
katashin moved to 院部屋
yusuken is not away
yusuken moved to 院部屋
kyudai is not active
sugikyo is not active
ozono is not active
katashin is not active
Received: message #general @tsukasho 1424823032.000103 "大学入れます．"
@avenger2 responded with "．すまれ入学大"
Received: message #general @tsukasho 1424823056.000105 "．すまれ入学大"
@avenger2 responded with "大学入れます．"
Received: message #general @yusuken 1424823067.000107 "？"
@avenger2 responded with "？"
Received: message #general @yusuken 1424823078.000109 "まさこさま"
@avenger2 responded with "まさこさま"
Received: message #general @tsukasho 1424823087.000111 "しんぶんし"
@avenger2 responded with "しんぶんし"
katashin is not away
katashin moved to 院部屋
Received: message #general @tsukasho 1424823095.000113 "とまと"
@avenger2 responded with "とまと"
Received: message #general @katashin 1424823107.000115 "avenger2"
@avenger2 responded with "2regneva"
Received: message #general @katashin 1424823120.000117 ":wwbeam: :"
@avenger2 responded with ": :maebww:"
suzutomo is not away
suzutomo moved to 学部部屋
ozono is not away
ozn202a moved to 教官室（大囿）
Received: message #general @katashin 1424823179.000119 ":oro:"
@avenger2 responded with ":oro:"
Received: message #general @tsukasho 1424823179.000120 "ないかではくすりのりすくはでかいな"
@avenger2 responded with "ないかではくすりのりすくはでかいな"
Received: message #general @slackbot 1424823179.000121 ":oro:"
@avenger2 responded with ":oro:"
Received: message #general @tsukasho 1424823189.000125 "はさまれた"
@avenger2 responded with "たれまさは"
Received: message #general @yusuken 1424823196.000127 ":oro:"
@avenger2 responded with ":oro:"
Received: message #general @slackbot 1424823196.000129 ":oro:"
@avenger2 responded with ":oro:"
Received: message #general @suzutomo 1424823211.000131 "oro"
@avenger2 responded with "oro"
Received: message #general @slackbot 1424823211.000132 ":oro:"
@avenger2 responded with ":oro:"
Received: message #general @yusuken 1424823211.000134 ":oro:"
@avenger2 responded with ":oro:"
Received: message #general @slackbot 1424823212.000136 ":oro:"
@avenger2 responded with ":oro:"
Received: message #general @katashin 1424823227.000139 "藤江君何とかして！"
@avenger2 responded with "！てしかと何君江藤"
Received: message #general @suzutomo 1424823241.000141 "ーたくど"
@avenger2 responded with "どくたー"
suzutomo is not active
Received: message #general @yusuken 1424823258.000143 "a = b"
@avenger2 responded with "b = a"
Received: message #general @yusuken 1424823268.000145 "x + y = z"
@avenger2 responded with "z = y + x"
Received: message #general @tsukasho 1424823285.000147 "！てしかと何ーたくど"
@avenger2 responded with "どくたー何とかして！"
Received: message #general @yusuken 1424823293.000149 "ログアウトしよう。"
@avenger2 responded with "。うよしトウアグロ"
kyudai is not away
kyudai moved to 院部屋
Received: message #general @tsukasho 1424823324.000151 "．うよしトウアグロ"
@avenger2 responded with "ログアウトしよう．"
Received: message #general @yusuken 1424823324.000152 ":evilevol:"
@avenger2 responded with ":lovelive:"

/Users/fujisho/Programming/Node/node-slack/examples/simple.js:82
%s "%s"', type, (channel.is_channel ? '#' : '') + channel.name, user.name, tim
                                                                    ^
TypeError: Cannot read property 'name' of undefined
  at Client.slack.on.slack_name (/Users/fujisho/Programming/Node/node-slack/examples/simple.js:82:103)
  at Client.emit (events.js:95:17)
  at Client.onMessage (/Users/fujisho/Programming/Node/node-slack/src/client.coffee:356:10)
  at WebSocket.<anonymous> (/Users/fujisho/Programming/Node/node-slack/src/client.coffee:121:10)
  at WebSocket.emit (events.js:98:17)
  at Receiver.self._receiver.ontext (/Users/fujisho/Programming/Node/node_modules/ws/lib/WebSocket.js:697:10)
  at Receiver.opcodes.1.finish (/Users/fujisho/Programming/Node/node_modules/ws/lib/Receiver.js:397:14)
  at Receiver.expectHandler (/Users/fujisho/Programming/Node/node_modules/ws/lib/Receiver.js:384:31)
  at Receiver.add (/Users/fujisho/Programming/Node/node_modules/ws/lib/Receiver.js:93:24)
  at CleartextStream.firstHandler (/Users/fujisho/Programming/Node/node_modules/ws/lib/WebSocket.js:678:22)
  at CleartextStream.emit (events.js:95:17)
  at CleartextStream.<anonymous> (_stream_readable.js:765:14)
  at CleartextStream.emit (events.js:92:17)
  at emitReadable_ (_stream_readable.js:427:10)
  at _stream_readable.js:420:7
  at process._tickCallback (node.js:442:13)

